{
    "id": "jboss71-ear-with-logback-clickstart",
    "name": "JBoss 71 Application with LogBack Enabled ",
    "source": "git@bitbucket.org:brahimalm/jboss71-ear-with-logback-clickstart.git",
    "description" : "Enable LogBack in your JBoss 71 web app",
    "doc-url" : "https://bitbucket.org/brahimalm/jboss71-ear-with-logback-clickstart/src/855ba1423f95629171846cfe96ec286602bcb98f/README.md?at=master",
    "app-package": "https://repository-community.forge.cloudbees.com/snapshot/localdomain/localhost/jboss71-ear-with-logback-ear/1.0-SNAPSHOT/jboss71-ear-with-logback-ear-1.0-20130731.140614-5.ear",
    "icon" : "https://bitbucket.org/brahimalm/jboss71-ear-with-logback-clickstart/raw/855ba1423f95629171846cfe96ec286602bcb98f/clickstart.png",
    "disabled": false,

    "supported-by" : "cloudbees",
    "order" : 400,

    "runtime": {
        "type": "jboss71"
    },
    "build-with-jenkins": {
        "template": {
            "type": "https://bitbucket.org/brahimalm/jboss71-ear-with-logback-clickstart/raw/855ba1423f95629171846cfe96ec286602bcb98f/jenkins.xml",
            "options": {
            }
        }
    }
}